{
  "images" : [
    {
      "filename" : "add20.png",
      "idiom" : "universal",
      "scale" : "1x"
    },
    {
      "filename" : "add40.png",
      "idiom" : "universal",
      "scale" : "2x"
    },
    {
      "filename" : "add60.png",
      "idiom" : "universal",
      "scale" : "3x"
    }
  ],
  "info" : {
    "author" : "xcode",
    "version" : 1
  }
}
